park events
…
What are the most popular times for park events in a day, and how does this change throughout the years?

park_df %>% 
  separate(date, into = c("day","month", "year"), sep = "/") %>% 
  group_by(year, start_time) %>% 
  summarize(count = n())

## `summarise()` has grouped output by 'year'. You can override using the `.groups` argument.

## # A tibble: 373 × 3
## # Groups:   year [7]
##    year  start_time count
##    <chr> <chr>      <int>
##  1 2013  00:00          4
##  2 2013  06:00        301
##  3 2013  06:30         82
##  4 2013  07:00         48
##  5 2013  07:30        215
##  6 2013  08:00       2346
##  7 2013  08:30        133
##  8 2013  08:45          7
##  9 2013  09:00       3982
## 10 2013  09:15         15
## # … with 363 more rows

What were the most frequently held events and where were these events located?

park_df%>% 
  group_by (borough, cate_name) %>% 
  summarize(count = n())

## `summarise()` has grouped output by 'borough'. You can override using the `.groups` argument.

## # A tibble: 645 × 3
## # Groups:   borough [7]
##    borough cate_name                              count
##    <chr>   <chr>                                  <int>
##  1 ""      Accessible                               134
##  2 ""      Art                                       30
##  3 ""      Art in the Parks: Celebrating 50 Years     2
##  4 ""      Arts & Crafts                             34
##  5 ""      Arts, Culture & Fun Series                 5
##  6 ""      Astronomy                                  1
##  7 ""      Best for Kids                            320
##  8 ""      Birding                                   16
##  9 ""      Black History Month                        2
## 10 ""      Bronx River Greenway                      54
## # … with 635 more rows

Organizers

park_df %>% 
  separate(date, into = c("day","month", "year"), sep = "/") %>% 
  group_by (event_organizer,year) %>% 
  summarize(count = n())

## `summarise()` has grouped output by 'event_organizer'. You can override using the `.groups` argument.

## # A tibble: 3,513 × 3
## # Groups:   event_organizer [2,158]
##    event_organizer                                       year  count
##    <chr>                                                 <chr> <int>
##  1 : East 43rd Street Community Garden                   2017      4
##  2 (TASCA) The American Small Craft Association          2015     18
##  3 106 St. Old Timers                                    2018      2
##  4 106 St. Old Timers, Inc.                              2018      2
##  5 10th & Stuyvesant Streets Block Association           2018      2
##  6 132nd st Community Garden                             2018      2
##  7 14 Sculptors                                          2017     35
##  8 150 - 155th Street Edgecombe Block Association        2016      2
##  9 150 - 155th Street Edgecombe Block Association        2017      2
## 10 150th-155th Street Edgecombe Avenue Block Association 2014      2
## # … with 3,503 more rows
